<?xml version="1.0" encoding="iso-8859-1"?>
<!-- Generator: Adobe Illustrator 19.0.0, SVG Export Plug-In . SVG Version: 6.00 Build 0)  -->
<svg version="1.1" id="Capa_1" xmlns="http://www.w3.org/2000/svg" xmlns:xlink="http://www.w3.org/1999/xlink" x="0px" y="0px"
	 viewBox="0 0 512 512" style="enable-background:new 0 0 512 512;" xml:space="preserve">
<g>
	<path style="fill:#455A64;" d="M234.667,512H192c-5.891,0-10.667-4.776-10.667-10.667s4.776-10.667,10.667-10.667h42.667
		c5.891,0,10.667-4.776,10.667-10.667V32c0-5.891-4.776-10.667-10.667-10.667H192c-5.891,0-10.667-4.776-10.667-10.667
		S186.109,0,192,0h42.667c17.673,0,32,14.327,32,32v448C266.667,497.673,252.34,512,234.667,512z"/>
	<path style="fill:#455A64;" d="M320,512h-42.667c-17.673,0-32-14.327-32-32V32c0-17.673,14.327-32,32-32H320
		c5.891,0,10.667,4.776,10.667,10.667S325.891,21.333,320,21.333h-42.667c-5.891,0-10.667,4.776-10.667,10.667v448
		c0,5.891,4.776,10.667,10.667,10.667H320c5.891,0,10.667,4.776,10.667,10.667S325.891,512,320,512z"/>
</g>
<g>
</g>
<g>
</g>
<g>
</g>
<g>
</g>
<g>
</g>
<g>
</g>
<g>
</g>
<g>
</g>
<g>
</g>
<g>
</g>
<g>
</g>
<g>
</g>
<g>
</g>
<g>
</g>
<g>
</g>
</svg>
